<?xml version="1.0" encoding="utf-8"?>
<!-- Generator: Adobe Illustrator 16.0.0, SVG Export Plug-In . SVG Version: 6.00 Build 0)  -->
<!DOCTYPE svg PUBLIC "-//W3C//DTD SVG 1.1//EN" "http://www.w3.org/Graphics/SVG/1.1/DTD/svg11.dtd">
<svg version="1.1" id="Layer_1" xmlns="http://www.w3.org/2000/svg" xmlns:xlink="http://www.w3.org/1999/xlink" x="0px" y="0px"
	 width="80px" height="80px" viewBox="0 0 80 80" enable-background="new 0 0 80 80" xml:space="preserve">
<g>
	<rect x="21.75" y="10.5" fill="none" stroke="#FFFFFF" stroke-miterlimit="10" width="36" height="5"/>
	<rect x="21.75" y="65.5" fill="none" stroke="#FFFFFF" stroke-miterlimit="10" width="36" height="5"/>
	<path fill="none" stroke="#FFFFFF" stroke-miterlimit="10" d="M26.435,15.5c-0.003,0,0.315,0.088,0.315,0.212V26.58
		c0,5.916,4,10.885,9,12.34v2.317c-5,1.358-9,6.396-9,12.413v10.867c0,0.124-0.619,0.982-0.615,0.982h26.242
		c0.003,0,0.373-0.858,0.373-0.982V53.65c0-6.017-4-11.055-10-12.413v-2.172c6-1.252,10-6.367,10-12.485V15.712
		c0-0.124-0.069-0.212-0.073-0.212H26.435z"/>
	<path fill="none" stroke="#FFFFFF" stroke-miterlimit="10" d="M49.361,56.767c-1.304-1.458-5.227-2.519-9.864-2.519
		s-8.561,1.061-9.864,2.519"/>
</g>
</svg>
