<?xml version="1.0" encoding="utf-8"?>
<!-- Generator: Adobe Illustrator 16.0.0, SVG Export Plug-In . SVG Version: 6.00 Build 0)  -->
<!DOCTYPE svg PUBLIC "-//W3C//DTD SVG 1.1//EN" "http://www.w3.org/Graphics/SVG/1.1/DTD/svg11.dtd">
<svg version="1.1" id="Layer_1" xmlns="http://www.w3.org/2000/svg" xmlns:xlink="http://www.w3.org/1999/xlink" x="0px" y="0px"
	 width="30px" height="30px" viewBox="-0.417 1.667 30 30" enable-background="new -0.417 1.667 30 30" xml:space="preserve">
<g>
	<line fill="none" stroke="#FFFFFF" stroke-miterlimit="10" x1="15" y1="18.5" x2="15" y2="22.5"/>
	<rect x="8" y="23" fill="none" stroke="#FFFFFF" stroke-miterlimit="10" width="14" height="8"/>
	<line fill="none" stroke="#FFFFFF" stroke-miterlimit="10" x1="11.5" y1="27" x2="18.5" y2="27"/>
	<g>
		<path fill="none" stroke="#FFFFFF" stroke-miterlimit="10" d="M9,3H3v3.406c0,3.668,2.475,6.641,5.734,6.641
			C8.866,13.047,9,13.035,9,13.025V3z"/>
		<path fill="none" stroke="#FFFFFF" stroke-miterlimit="10" d="M21,3h6v3.406c0,3.668-2.475,6.641-5.734,6.641
			c-0.132,0-0.266-0.012-0.266-0.021V3z"/>
		<path fill="none" stroke="#FFFFFF" stroke-miterlimit="10" d="M9,3v9.656c0,3.236,2.764,5.859,6,5.859s6-2.623,6-5.859V3H9z"/>
		<g>
			<line fill="none" stroke="#FFFFFF" stroke-miterlimit="10" x1="11" y1="3.5" x2="11" y2="7.5"/>
			<path fill="none" stroke="#FFFFFF" stroke-miterlimit="10" d="M11,9.5v0.812c0,1.959,1.11,3.836,2.734,4.682"/>
		</g>
	</g>
</g>
</svg>
