<?xml version="1.0" encoding="utf-8"?>
<!-- Generator: Adobe Illustrator 16.0.0, SVG Export Plug-In . SVG Version: 6.00 Build 0)  -->
<!DOCTYPE svg PUBLIC "-//W3C//DTD SVG 1.1//EN" "http://www.w3.org/Graphics/SVG/1.1/DTD/svg11.dtd">
<svg version="1.1" id="Layer_1" xmlns="http://www.w3.org/2000/svg" xmlns:xlink="http://www.w3.org/1999/xlink" x="0px" y="0px"
	 width="80px" height="80px" viewBox="0 0 80 80" enable-background="new 0 0 80 80" xml:space="preserve">
<g>
	<circle fill="none" stroke="#FFFFFF" stroke-width="2" stroke-miterlimit="10" cx="40" cy="40" r="4.494"/>
	<path fill="none" stroke="#FFFFFF" stroke-width="2" stroke-miterlimit="10" d="M64.553,42.988
		c0.244-2.008,0.239-4.012-0.002-5.977c-3.129,0.683-6.395-0.943-7.664-4.008c-1.269-3.062-0.109-6.521,2.586-8.251
		c-1.219-1.56-2.631-2.981-4.225-4.228c-1.73,2.697-5.189,3.856-8.252,2.588c-3.064-1.27-4.691-4.535-4.008-7.666
		c-2.007-0.244-4.011-0.239-5.976,0.002c0.682,3.129-0.944,6.395-4.008,7.663s-6.521,0.11-8.253-2.585
		c-1.559,1.219-2.98,2.633-4.226,4.224c2.696,1.73,3.856,5.19,2.587,8.255c-1.27,3.062-4.535,4.69-7.666,4.006
		c-0.244,2.008-0.239,4.012,0.002,5.977c3.131-0.684,6.396,0.943,7.664,4.007c1.27,3.063,0.111,6.522-2.586,8.251
		c1.219,1.56,2.633,2.982,4.225,4.227c1.73-2.696,5.189-3.855,8.254-2.586s4.689,4.534,4.007,7.665
		c2.007,0.245,4.011,0.24,5.976-0.002c-0.682-3.129,0.943-6.395,4.008-7.663c3.062-1.27,6.521-0.11,8.252,2.585
		c1.56-1.218,2.98-2.632,4.226-4.224c-2.695-1.73-3.855-5.189-2.586-8.254C58.157,43.931,61.422,42.305,64.553,42.988z
		 M36.559,48.308c-4.588-1.9-6.766-7.16-4.865-11.749c1.9-4.588,7.16-6.768,11.748-4.867s6.766,7.16,4.865,11.748
		C46.406,48.028,41.147,50.207,36.559,48.308z"/>
</g>
</svg>
