<?xml version="1.0" encoding="utf-8"?>
<!-- Generator: Adobe Illustrator 16.0.0, SVG Export Plug-In . SVG Version: 6.00 Build 0)  -->
<!DOCTYPE svg PUBLIC "-//W3C//DTD SVG 1.1//EN" "http://www.w3.org/Graphics/SVG/1.1/DTD/svg11.dtd">
<svg version="1.1" id="Layer_1" xmlns="http://www.w3.org/2000/svg" xmlns:xlink="http://www.w3.org/1999/xlink" x="0px" y="0px"
	 width="80px" height="80px" viewBox="0 0 80 80" enable-background="new 0 0 80 80" xml:space="preserve">
<g>
	<polyline fill="none" stroke="#FFFFFF" stroke-linecap="round" stroke-miterlimit="10" points="42.219,56.285 54.863,40.5 
		41.538,40.5 42.562,20.935 25.137,47.5 36.75,47.5 36.75,69 	"/>
	<path fill="none" stroke="#FFFFFF" stroke-linecap="round" stroke-miterlimit="10" d="M50.764,67.35
		c10.876-4.293,18.574-14.89,18.574-27.291c0-16.203-13.135-29.338-29.338-29.338S10.662,23.856,10.662,40.059
		c0,15.338,11.773,27.92,26.775,29.22"/>
</g>
</svg>
